<?xml version="1.0" encoding="UTF-8" standalone="no"?>
<!-- Created with Inkscape (http://www.inkscape.org/) -->

<svg
   width="121.3071mm"
   height="88.344131mm"
   viewBox="0 0 218.35278 159.01944"
   version="1.1"
   id="svg1242"
   inkscape:version="1.1 (c4e8f9e, 2021-05-24)"
   sodipodi:docname="distributedControl.svg"
   xmlns:inkscape="http://www.inkscape.org/namespaces/inkscape"
   xmlns:sodipodi="http://sodipodi.sourceforge.net/DTD/sodipodi-0.dtd"
   xmlns="http://www.w3.org/2000/svg"
   xmlns:svg="http://www.w3.org/2000/svg">
  <sodipodi:namedview
     id="namedview1244"
     pagecolor="#ffffff"
     bordercolor="#999999"
     borderopacity="1"
     inkscape:pageshadow="0"
     inkscape:pageopacity="0"
     inkscape:pagecheckerboard="0"
     inkscape:document-units="mm"
     showgrid="false"
     scale-x="1.8"
     fit-margin-left="5"
     lock-margins="true"
     fit-margin-top="5"
     fit-margin-right="5"
     fit-margin-bottom="5"
     inkscape:zoom="0.46947952"
     inkscape:cx="416.41859"
     inkscape:cy="449.43388"
     inkscape:window-width="1210"
     inkscape:window-height="688"
     inkscape:window-x="0"
     inkscape:window-y="23"
     inkscape:window-maximized="0"
     inkscape:current-layer="layer1" />
  <defs
     id="defs1239" />
  <g
     inkscape:label="Layer 1"
     inkscape:groupmode="layer"
     id="layer1"
     transform="translate(8.8613956,-52.92861)">
    <g
       id="g988"
       style="fill:none;fill-opacity:1;stroke:none;stroke-dasharray:none;stroke-opacity:1"
       transform="matrix(0.35277777,0,0,0.35277777,-18.685006,50.438333)">
      <title
         id="title836">Layer 1</title>
      <path
         d="M 62.858267,73.700787 H 214.93701 c 4.97056,0 8.99999,4.029437 8.99999,9 V 184.70079 c 0,4.97056 -4.02943,9 -8.99999,9 H 62.858267 c -4.970562,0 -9,-4.02944 -9,-9 V 82.700787 c 0,-4.970563 4.029438,-9 9,-9 z"
         fill="#ffffff"
         id="path838" />
      <path
         d="M 62.858267,73.700787 H 214.93701 c 4.97056,0 8.99999,4.029437 8.99999,9 V 184.70079 c 0,4.97056 -4.02943,9 -8.99999,9 H 62.858267 c -4.970562,0 -9,-4.02944 -9,-9 V 82.700787 c 0,-4.970563 4.029438,-9 9,-9 z"
         stroke="#000000"
         stroke-linecap="round"
         stroke-linejoin="round"
         stroke-width="1"
         id="path840" />
      <text
         transform="translate(62.263287,80.03937)"
         fill="#000000"
         id="text844"><tspan
           font-family="Helvetica"
           font-size="10px"
           font-weight="bold"
           x="0.38916016"
           y="10"
           id="tspan842">Host</tspan></text>
      <path
         d="m 74.86614,164.40945 h 63.81102 c 2.20914,0 4,1.79086 4,4 v 9.00787 c 0,2.20914 -1.79086,4 -4,4 H 74.86614 c -2.209138,0 -4,-1.79086 -4,-4 v -9.00787 c 0,-2.20914 1.790862,-4 4,-4 z"
         fill="#aaede5"
         id="path846" />
      <path
         d="m 74.86614,164.40945 h 63.81102 c 2.20914,0 4,1.79086 4,4 v 9.00787 c 0,2.20914 -1.79086,4 -4,4 H 74.86614 c -2.209138,0 -4,-1.79086 -4,-4 v -9.00787 c 0,-2.20914 1.790862,-4 4,-4 z"
         stroke="#000000"
         stroke-linecap="round"
         stroke-linejoin="round"
         stroke-width="1"
         id="path848" />
      <text
         transform="translate(75.86614,166.77339)"
         fill="#000000"
         id="text852"><tspan
           font-family="'Helvetica Neue'"
           font-size="10px"
           font-weight="500"
           x="2.015512"
           y="10"
           id="tspan850">USB/RS-232</tspan></text>
      <ellipse
         cx="172.91338"
         cy="117.63779"
         rx="36.850452"
         ry="18.425226"
         stroke="#000000"
         stroke-linecap="round"
         stroke-linejoin="round"
         stroke-width="1"
         id="ellipse854" />
      <ellipse
         cx="133.22835"
         cy="123.30708"
         rx="36.850452"
         ry="18.425226"
         fill="#ffffff"
         id="ellipse856" />
      <ellipse
         cx="133.22835"
         cy="123.30708"
         rx="36.850452"
         ry="18.425226"
         stroke="#000000"
         stroke-linecap="round"
         stroke-linejoin="round"
         stroke-width="1"
         id="ellipse858" />
      <ellipse
         cx="116.22047"
         cy="111.9685"
         rx="36.850452"
         ry="18.425226"
         fill="#ffffff"
         id="ellipse860" />
      <ellipse
         cx="116.22047"
         cy="111.9685"
         rx="36.850452"
         ry="18.425226"
         stroke="#000000"
         stroke-linecap="round"
         stroke-linejoin="round"
         stroke-width="1"
         id="ellipse862" />
      <text
         transform="translate(91.740157,99.688505)"
         fill="#000000"
         id="text868"><tspan
           font-family="'Helvetica Neue'"
           font-size="10px"
           font-weight="500"
           x="8.7353153"
           y="10"
           id="tspan864">Python</tspan><tspan
           font-family="'Helvetica Neue'"
           font-size="10px"
           font-weight="500"
           x="13.365315"
           y="22.279999"
           id="tspan866">apps</tspan></text>
      <line
         x1="116.22047"
         y1="130.39371"
         x2="108.66142"
         y2="164.40945"
         stroke="#000000"
         stroke-linecap="round"
         stroke-linejoin="round"
         stroke-width="1"
         id="line870" />
      <path
         d="m 71.362204,238.11023 h 95.385826 c 4.97056,0 9,4.02944 9,9 v 44.36221 c 0,4.97056 -4.02944,9 -9,9 H 71.362204 c -4.970564,0 -9,-4.02944 -9,-9 v -44.36221 c 0,-4.97056 4.029436,-9 9,-9 z"
         fill="#ffffff"
         id="path872" />
      <path
         d="m 71.362204,238.11023 h 95.385826 c 4.97056,0 9,4.02944 9,9 v 44.36221 c 0,4.97056 -4.02944,9 -9,9 H 71.362204 c -4.970564,0 -9,-4.02944 -9,-9 v -44.36221 c 0,-4.97056 4.029436,-9 9,-9 z"
         stroke="#000000"
         stroke-linecap="round"
         stroke-linejoin="round"
         stroke-width="1"
         id="path874" />
      <text
         transform="translate(77.06299,243.11023)"
         fill="#000000"
         id="text880"><tspan
           font-family="Helvetica"
           font-size="10px"
           font-weight="bold"
           x="0.17333984"
           y="10"
           id="tspan876">Module</tspan><tspan
           font-family="Helvetica"
           font-size="10px"
           font-weight="bold"
           x="37.580566"
           y="10"
           id="tspan878">Assembly</tspan></text>
      <line
         x1="108.19923"
         y1="181.41731"
         x2="117.71639"
         y2="238.11023"
         stroke="#000000"
         stroke-linecap="round"
         stroke-linejoin="round"
         stroke-width="1"
         id="line882" />
      <path
         d="m 516.40157,170.07874 h 95.38583 c 4.97056,0 9,4.02944 9,9 v 44.3622 c 0,4.97056 -4.02944,9 -9,9 h -95.38583 c -4.97057,0 -9,-4.02944 -9,-9 v -44.3622 c 0,-4.97056 4.02943,-9 9,-9 z"
         fill="#ffffff"
         id="path884" />
      <path
         d="m 516.40157,170.07874 h 95.38583 c 4.97056,0 9,4.02944 9,9 v 44.3622 c 0,4.97056 -4.02944,9 -9,9 h -95.38583 c -4.97057,0 -9,-4.02944 -9,-9 v -44.3622 c 0,-4.97056 4.02943,-9 9,-9 z"
         stroke="#000000"
         stroke-linecap="round"
         stroke-linejoin="round"
         stroke-width="1"
         id="path886" />
      <text
         transform="translate(522.10236,175.07874)"
         fill="#000000"
         id="text892"><tspan
           font-family="Helvetica"
           font-size="10px"
           font-weight="bold"
           x="0.17333984"
           y="10"
           id="tspan888">Module</tspan><tspan
           font-family="Helvetica"
           font-size="10px"
           font-weight="bold"
           x="37.580566"
           y="10"
           id="tspan890">Assembly</tspan></text>
      <path
         d="m 485.22047,189.92126 h 95.38583 c 4.97056,0 9,4.02944 9,9 v 44.3622 c 0,4.97057 -4.02944,9 -9,9 h -95.38583 c -4.97057,0 -9,-4.02943 -9,-9 v -44.3622 c 0,-4.97056 4.02943,-9 9,-9 z"
         fill="#ffffff"
         id="path894" />
      <path
         d="m 485.22047,189.92126 h 95.38583 c 4.97056,0 9,4.02944 9,9 v 44.3622 c 0,4.97057 -4.02944,9 -9,9 h -95.38583 c -4.97057,0 -9,-4.02943 -9,-9 v -44.3622 c 0,-4.97056 4.02943,-9 9,-9 z"
         stroke="#000000"
         stroke-linecap="round"
         stroke-linejoin="round"
         stroke-width="1"
         id="path896" />
      <text
         transform="translate(490.92126,194.92126)"
         fill="#000000"
         id="text902"><tspan
           font-family="Helvetica"
           font-size="10px"
           font-weight="bold"
           x="0.17333984"
           y="10"
           id="tspan898">Module</tspan><tspan
           font-family="Helvetica"
           font-size="10px"
           font-weight="bold"
           x="37.580566"
           y="10"
           id="tspan900">Assembly</tspan></text>
      <path
         d="m 349.15748,33.070865 h 152.07874 c 4.97056,0 9,4.029438 9,9 V 144.07086 c 0,4.97057 -4.02944,9 -9,9 H 349.15748 c -4.97056,0 -9,-4.02943 -9,-9 V 42.070865 c 0,-4.970562 4.02944,-9 9,-9 z"
         fill="#ffffff"
         id="path904" />
      <path
         d="m 349.15748,33.070865 h 152.07874 c 4.97056,0 9,4.029438 9,9 V 144.07086 c 0,4.97057 -4.02944,9 -9,9 H 349.15748 c -4.97056,0 -9,-4.02943 -9,-9 V 42.070865 c 0,-4.970562 4.02944,-9 9,-9 z"
         stroke="#000000"
         stroke-linecap="round"
         stroke-linejoin="round"
         stroke-width="1"
         id="path906" />
      <text
         transform="translate(350.82677,40.35433)"
         fill="#000000"
         id="text910"><tspan
           font-family="Helvetica"
           font-size="10px"
           font-weight="bold"
           x="0.38916016"
           y="10"
           id="tspan908">Host</tspan></text>
      <ellipse
         cx="425.19684"
         cy="86.456688"
         rx="36.850452"
         ry="18.425226"
         fill="#ccccff"
         id="ellipse912" />
      <ellipse
         cx="425.19684"
         cy="86.456688"
         rx="36.850452"
         ry="18.425226"
         stroke="#000000"
         stroke-linecap="round"
         stroke-linejoin="round"
         stroke-width="1"
         id="ellipse914" />
      <text
         transform="translate(400.71653,80.316693)"
         fill="#000000"
         id="text918"><tspan
           font-family="'Helvetica Neue'"
           font-size="10px"
           font-weight="500"
           x="9.7603149"
           y="10"
           id="tspan916">Bridge</tspan></text>
      <path
         d="m 419.74803,124.72441 h 63.81102 c 2.20915,0 4,1.79086 4,4 v 9.00787 c 0,2.20914 -1.79085,4 -4,4 h -63.81102 c -2.20913,0 -4,-1.79086 -4,-4 v -9.00787 c 0,-2.20914 1.79087,-4 4,-4 z"
         fill="#aaede5"
         id="path920" />
      <path
         d="m 419.74803,124.72441 h 63.81102 c 2.20915,0 4,1.79086 4,4 v 9.00787 c 0,2.20914 -1.79085,4 -4,4 h -63.81102 c -2.20913,0 -4,-1.79086 -4,-4 v -9.00787 c 0,-2.20914 1.79087,-4 4,-4 z"
         stroke="#000000"
         stroke-linecap="round"
         stroke-linejoin="round"
         stroke-width="1"
         id="path922" />
      <text
         transform="translate(420.74803,127.08835)"
         fill="#000000"
         id="text926"><tspan
           font-family="'Helvetica Neue'"
           font-size="10px"
           font-weight="500"
           x="2.015512"
           y="10"
           id="tspan924">USB/RS-232</tspan></text>
      <line
         x1="425.19684"
         y1="104.8819"
         x2="443.71652"
         y2="124.72441"
         stroke="#000000"
         stroke-linecap="round"
         stroke-linejoin="round"
         stroke-width="1"
         id="line928" />
      <path
         d="m 349.15748,311.81102 h 152.07874 c 4.97056,0 9,4.02944 9,9 v 102 c 0,4.97056 -4.02944,9 -9,9 H 349.15748 c -4.97056,0 -9,-4.02944 -9,-9 v -102 c 0,-4.97056 4.02944,-9 9,-9 z"
         fill="#ffffff"
         id="path930" />
      <path
         d="m 349.15748,311.81102 h 152.07874 c 4.97056,0 9,4.02944 9,9 v 102 c 0,4.97056 -4.02944,9 -9,9 H 349.15748 c -4.97056,0 -9,-4.02944 -9,-9 v -102 c 0,-4.97056 4.02944,-9 9,-9 z"
         stroke="#000000"
         stroke-linecap="round"
         stroke-linejoin="round"
         stroke-width="1"
         id="path932" />
      <text
         transform="translate(349.00787,410.35433)"
         fill="#000000"
         id="text936"><tspan
           font-family="Helvetica"
           font-size="10px"
           font-weight="bold"
           x="0.38916016"
           y="10"
           id="tspan934">Host</tspan></text>
      <ellipse
         cx="413.85828"
         cy="386.92914"
         rx="36.850452"
         ry="18.425226"
         fill="#ccccff"
         id="ellipse938" />
      <ellipse
         cx="413.85828"
         cy="386.92914"
         rx="36.850452"
         ry="18.425226"
         stroke="#000000"
         stroke-linecap="round"
         stroke-linejoin="round"
         stroke-width="1"
         id="ellipse940" />
      <text
         transform="translate(389.37795,380.78913)"
         fill="#000000"
         id="text944"><tspan
           font-family="'Helvetica Neue'"
           font-size="10px"
           font-weight="500"
           x="9.7603149"
           y="10"
           id="tspan942">Bridge</tspan></text>
      <path
         d="m 426.3622,323.1496 h 63.81103 c 2.20914,0 4,1.79087 4,4 v 9.00788 c 0,2.20914 -1.79086,4 -4,4 H 426.3622 c -2.20914,0 -4,-1.79086 -4,-4 v -9.00788 c 0,-2.20913 1.79086,-4 4,-4 z"
         fill="#aaede5"
         id="path946" />
      <path
         d="m 426.3622,323.1496 h 63.81103 c 2.20914,0 4,1.79087 4,4 v 9.00788 c 0,2.20914 -1.79086,4 -4,4 H 426.3622 c -2.20914,0 -4,-1.79086 -4,-4 v -9.00788 c 0,-2.20913 1.79086,-4 4,-4 z"
         stroke="#000000"
         stroke-linecap="round"
         stroke-linejoin="round"
         stroke-width="1"
         id="path948" />
      <text
         transform="translate(427.3622,325.51354)"
         fill="#000000"
         id="text952"><tspan
           font-family="'Helvetica Neue'"
           font-size="10px"
           font-weight="500"
           x="2.015512"
           y="10"
           id="tspan950">USB/RS-232</tspan></text>
      <line
         x1="413.85828"
         y1="368.50391"
         x2="448.01938"
         y2="340.15747"
         stroke="#000000"
         stroke-linecap="round"
         stroke-linejoin="round"
         stroke-width="1"
         id="line954" />
      <path
         d="m 459.70866,215.43307 h 95.38584 c 4.97055,0 9,4.02944 9,9 v 44.3622 c 0,4.97057 -4.02945,9 -9,9 h -95.38584 c -4.97056,0 -9,-4.02943 -9,-9 v -44.3622 c 0,-4.97056 4.02944,-9 9,-9 z"
         fill="#ffffff"
         id="path956" />
      <path
         d="m 459.70866,215.43307 h 95.38584 c 4.97055,0 9,4.02944 9,9 v 44.3622 c 0,4.97057 -4.02945,9 -9,9 h -95.38584 c -4.97056,0 -9,-4.02943 -9,-9 v -44.3622 c 0,-4.97056 4.02944,-9 9,-9 z"
         stroke="#000000"
         stroke-linecap="round"
         stroke-linejoin="round"
         stroke-width="1"
         id="path958" />
      <text
         transform="translate(465.40945,220.43307)"
         fill="#000000"
         id="text964"><tspan
           font-family="Helvetica"
           font-size="10px"
           font-weight="bold"
           x="0.17333984"
           y="10"
           id="tspan960">Module</tspan><tspan
           font-family="Helvetica"
           font-size="10px"
           font-weight="bold"
           x="37.580566"
           y="10"
           id="tspan962">Assembly</tspan></text>
      <line
         x1="489.38583"
         y1="277.79526"
         x2="463.18109"
         y2="323.1496"
         stroke="#000000"
         stroke-linecap="round"
         stroke-linejoin="round"
         stroke-width="1"
         id="line966" />
      <line
         x1="471.72672"
         y1="141.73228"
         x2="538.63733"
         y2="170.07874"
         stroke="#000000"
         stroke-linecap="round"
         stroke-linejoin="round"
         stroke-width="1"
         id="line968" />
      <line
         x1="461.92563"
         y1="141.73228"
         x2="520.13409"
         y2="189.92126"
         stroke="#000000"
         stroke-linecap="round"
         stroke-linejoin="round"
         stroke-width="1"
         id="line970" />
      <path
         d="m 272.65227,236.52394 c -19.3944,-6.4452 -11.6604,-60.7032 19.278,-51.4452 2.8704,-18.0468 38.8476,-15.1176 38.6124,0 22.5588,-19.3356 51.3876,19.2192 32.0508,38.5548 23.2032,9.3744 -0.2928,59.8824 -19.3356,51.4452 -1.524,14.0628 -35.5668,18.984 -38.5548,0 -19.2768,20.274 -59.472,-10.8984 -32.0508,-38.5548 z"
         fill="#ffffff"
         id="path972" />
      <path
         d="m 272.65227,236.52394 c -19.3944,-6.4452 -11.6604,-60.7032 19.278,-51.4452 2.8704,-18.0468 38.8476,-15.1176 38.6124,0 22.5588,-19.3356 51.3876,19.2192 32.0508,38.5548 23.2032,9.3744 -0.2928,59.8824 -19.3356,51.4452 -1.524,14.0628 -35.5668,18.984 -38.5548,0 -19.2768,20.274 -59.472,-10.8984 -32.0508,-38.5548 z"
         stroke="#000000"
         stroke-linecap="round"
         stroke-linejoin="round"
         stroke-width="1"
         id="path974" />
      <text
         transform="translate(280.00787,223.93874)"
         fill="#000000"
         id="text978"><tspan
           font-family="'Helvetica Neue'"
           font-size="10px"
           font-weight="500"
           fill="#000000"
           x="18.209999"
           y="10"
           id="tspan976">Network</tspan></text>
      <line
         x1="425.19684"
         y1="104.8819"
         x2="356.56927"
         y2="184.29807"
         stroke="#0000ff"
         stroke-linecap="round"
         stroke-linejoin="round"
         stroke-width="2"
         id="line980" />
      <line
         x1="413.85828"
         y1="368.50394"
         x2="349.09283"
         y2="275.93674"
         stroke="#0000ff"
         stroke-linecap="round"
         stroke-linejoin="round"
         stroke-width="2"
         id="line982" />
      <line
         x1="133.22835"
         y1="141.73228"
         x2="263.55545"
         y2="204.3831"
         stroke="#0000ff"
         stroke-linecap="round"
         stroke-linejoin="round"
         stroke-width="2"
         id="line984" />
      <line
         x1="266.34726"
         y1="197.02477"
         x2="172.91338"
         y2="136.063"
         stroke="#0000ff"
         stroke-linecap="round"
         stroke-linejoin="round"
         stroke-width="2"
         id="line986" />
    </g>
  </g>
</svg>
